C:\Users\LinaG\eclipse-IDE-workspace\delivery-final-pro\src\main\java\com\delivery\pro\servlets\LoadDeliveryList.java
C:\Users\LinaG\eclipse-IDE-workspace\delivery-final-pro\src\main\java\com\delivery\pro\servlets\DeleteUser.java
C:\Users\LinaG\eclipse-IDE-workspace\delivery-final-pro\src\main\java\com\delivery\pro\servlets\GetUserInfo.java
C:\Users\LinaG\eclipse-IDE-workspace\delivery-final-pro\src\main\java\com\delivery\pro\servlets\DeliveryListManager.java
C:\Users\LinaG\eclipse-IDE-workspace\delivery-final-pro\src\main\java\com\delivery\pro\database\DBManager.java
C:\Users\LinaG\eclipse-IDE-workspace\delivery-final-pro\src\main\java\com\delivery\pro\servlets\LoadOrderListManager.java
C:\Users\LinaG\eclipse-IDE-workspace\delivery-final-pro\src\main\java\com\delivery\pro\servlets\PayOrder.java
C:\Users\LinaG\eclipse-IDE-workspace\delivery-final-pro\src\main\java\com\delivery\pro\dao\MakeOrderException.java
C:\Users\LinaG\eclipse-IDE-workspace\delivery-final-pro\src\main\java\com\delivery\pro\servlets\EditDelivery.java
C:\Users\LinaG\eclipse-IDE-workspace\delivery-final-pro\src\main\java\com\delivery\pro\servlets\LoadDeliveryUser.java
C:\Users\LinaG\eclipse-IDE-workspace\delivery-final-pro\src\main\java\com\delivery\pro\servlets\AllReceiptByRoute.java
C:\Users\LinaG\eclipse-IDE-workspace\delivery-final-pro\src\main\java\com\delivery\pro\servlets\MakeOrder.java
C:\Users\LinaG\eclipse-IDE-workspace\delivery-final-pro\src\main\java\com\delivery\pro\entity\Receipt.java
C:\Users\LinaG\eclipse-IDE-workspace\delivery-final-pro\src\main\java\com\delivery\pro\servlets\Register.java
C:\Users\LinaG\eclipse-IDE-workspace\delivery-final-pro\src\main\java\com\delivery\pro\servlets\AddDelivery.java
C:\Users\LinaG\eclipse-IDE-workspace\delivery-final-pro\src\main\java\com\delivery\pro\entity\Delivery.java
C:\Users\LinaG\eclipse-IDE-workspace\delivery-final-pro\src\main\java\com\delivery\pro\servlets\DeleteDelivery.java
C:\Users\LinaG\eclipse-IDE-workspace\delivery-final-pro\src\main\java\com\delivery\pro\servlets\UserOrderInfo.java
C:\Users\LinaG\eclipse-IDE-workspace\delivery-final-pro\src\main\java\com\delivery\pro\servlets\LoadDeliveryManager.java
C:\Users\LinaG\eclipse-IDE-workspace\delivery-final-pro\src\main\java\com\delivery\pro\dao\DeliveryDAO.java
C:\Users\LinaG\eclipse-IDE-workspace\delivery-final-pro\src\main\java\com\delivery\pro\tags\UserInfoTag.java
C:\Users\LinaG\eclipse-IDE-workspace\delivery-final-pro\src\main\java\com\delivery\pro\servlets\CancelOrder.java
C:\Users\LinaG\eclipse-IDE-workspace\delivery-final-pro\src\main\java\com\delivery\pro\entity\User.java
C:\Users\LinaG\eclipse-IDE-workspace\delivery-final-pro\src\main\java\com\delivery\pro\servlets\UserList.java
C:\Users\LinaG\eclipse-IDE-workspace\delivery-final-pro\src\main\java\com\delivery\pro\filters\ManagerFilter.java
C:\Users\LinaG\eclipse-IDE-workspace\delivery-final-pro\src\main\java\com\delivery\pro\servlets\EditOrderInfo.java
C:\Users\LinaG\eclipse-IDE-workspace\delivery-final-pro\src\main\java\com\delivery\pro\servlets\LogOut.java
C:\Users\LinaG\eclipse-IDE-workspace\delivery-final-pro\src\main\java\com\delivery\pro\filters\RegisterValidationFilter.java
C:\Users\LinaG\eclipse-IDE-workspace\delivery-final-pro\src\main\java\com\delivery\pro\dao\InsertUserException.java
C:\Users\LinaG\eclipse-IDE-workspace\delivery-final-pro\src\main\java\com\delivery\pro\servlets\MyOrderInfo.java
C:\Users\LinaG\eclipse-IDE-workspace\delivery-final-pro\src\main\java\com\delivery\pro\servlets\UpdateUser.java
C:\Users\LinaG\eclipse-IDE-workspace\delivery-final-pro\src\main\java\com\delivery\pro\servlets\GetOrderInfo.java
C:\Users\LinaG\eclipse-IDE-workspace\delivery-final-pro\src\main\java\com\delivery\pro\dao\ReceiptDAO.java
C:\Users\LinaG\eclipse-IDE-workspace\delivery-final-pro\src\main\java\com\delivery\pro\servlets\AllReceiptList.java
C:\Users\LinaG\eclipse-IDE-workspace\delivery-final-pro\src\main\java\com\delivery\pro\servlets\Login.java
C:\Users\LinaG\eclipse-IDE-workspace\delivery-final-pro\src\main\java\com\delivery\pro\dao\UserDAO.java
C:\Users\LinaG\eclipse-IDE-workspace\delivery-final-pro\src\main\java\com\delivery\pro\filters\LocaleFilter.java
C:\Users\LinaG\eclipse-IDE-workspace\delivery-final-pro\src\main\java\com\delivery\pro\servlets\LoadOrdersManager.java
